## Fishvice

The concept:


```r
library(magrittr)
stockassessment::fitfromweb("BW-2021") %>% 
  fishvice::fv_rbx()
```

```
## $rby
## # A tibble: 205 × 5
##     year     est     low     high variable
##    <int>   <dbl>   <dbl>    <dbl> <chr>   
##  1  1981 786019. 563267. 1096862. catch   
##  2  1982 544005. 413227.  716172. catch   
##  3  1983 511280. 394905.  661951. catch   
##  4  1984 560898. 432736.  727017. catch   
##  5  1985 637580. 500133.  812799. catch   
##  6  1986 759587. 596212.  967730. catch   
##  7  1987 638140. 501155.  812568. catch   
##  8  1988 569424. 447817.  724054. catch   
##  9  1989 619189. 490185.  782143. catch   
## 10  1990 553357. 435295.  703440. catch   
## # … with 195 more rows
## 
## $rbya
## # A tibble: 410 × 14
##     year   age       oC    cW    dW    lF    lW   mat     m    pF    pM    sW
##    <dbl> <dbl>    <dbl> <dbl> <dbl> <int> <dbl> <dbl> <dbl> <int> <int> <dbl>
##  1  1981     1  258000. 0.052 0.052     1 0.052  0.11   0.2     0     0 0.052
##  2  1981     2  348000  0.065 0.065     1 0.065  0.4    0.2     0     0 0.065
##  3  1981     3  681000  0.103 0.103     1 0.103  0.82   0.2     0     0 0.103
##  4  1981     4  334000. 0.125 0.125     1 0.125  0.86   0.2     0     0 0.125
##  5  1981     5  548000. 0.141 0.141     1 0.141  0.91   0.2     0     0 0.141
##  6  1981     6  559000. 0.155 0.155     1 0.155  0.94   0.2     0     0 0.155
##  7  1981     7  466000  0.17  0.17      1 0.17   1      0.2     0     0 0.17 
##  8  1981     8  634000  0.178 0.178     1 0.178  1      0.2     0     0 0.178
##  9  1981     9  578000  0.187 0.187     1 0.187  1      0.2     0     0 0.187
## 10  1981    10 1460000. 0.213 0.213     1 0.213  1      0.2     0     0 0.213
## # … with 400 more rows, and 2 more variables: n <dbl>, f <dbl>
## 
## $opr
## # A tibble: 554 × 5
##     year   age fleet     o     p
##    <dbl> <dbl> <chr> <dbl> <dbl>
##  1  1981     1 catch  12.5  12.5
##  2  1981     2 catch  12.8  12.8
##  3  1981     3 catch  13.4  13.5
##  4  1981     4 catch  12.7  12.8
##  5  1981     5 catch  13.2  13.2
##  6  1981     6 catch  13.2  13.2
##  7  1981     7 catch  13.1  13.0
##  8  1981     8 catch  13.4  13.3
##  9  1981     9 catch  13.3  13.0
## 10  1981    10 catch  14.2  13.9
## # … with 544 more rows
```
